…
#Find duplicate entries by looking at title
#movies[duplicated(movies$title) | duplicated(movies$title, fromLast=TRUE),]

nam<-movies$title
numb<- 1:2961
dt1<-data.frame(name=nam,number=numb)
duplicated_name=dt1 %>% 
  group_by(name) %>% 
  summarise(freq=n()) %>% 
  filter(freq>1) %>% 
  select(name)
duplicated_name

## # A tibble: 53 × 1
##    name                       
##    <chr>                      
##  1 A Nightmare on Elm Street  
##  2 Across the Universe        
##  3 Alice in Wonderland        
##  4 Aloha                      
##  5 Around the World in 80 Days
##  6 Brothers                   
##  7 Carrie                     
##  8 Chasing Liberty            
##  9 Cinderella                 
## 10 Clash of the Titans        
## # … with 43 more rows
…
